Starting weekly assessment for Lauren, Week3

Current Marks = 100

Note that: 
(1) Major sections begin with a double "====" line 
(2) Subsections begin with a single "====" line 
(3) Code output or text file content are printed within single "*****" lines 

======================================================================
======================================================================
Your Git repo size this week is about 418.97 MiB on disk 

PART 1: Checking project workflow...

Found the following directories in parent directory: Week3, Week1, Python2, Week2, .git, Assessment

Found the following files in parent directory: README.txt, SilBioComp.pdf

Checking for key files in parent directory...

.gitignore missing, 1 pt deducted

Current Marks = 99

Found README in parent directory, named: README.txt

Printing contents of README.txt:
**********************************************************************
My QMEE bootcamp repository
**********************************************************************

======================================================================
Looking for the weekly directories...

Found 3 weekly directories: Week1, Week2, Week3

The Week3 directory will be assessed 

======================================================================
======================================================================
PART 2: Checking weekly code and workflow...

======================================================================
Assessing WEEK3...

Found the following directories: Data, Code, Results

Found the following files: 

Checking for readme file in weekly directory...

README file missing, 1 pt deducted

Current Marks = 98

Found 37 code files: temp_Nc.txt, temp_c.txt, test_get_TreeHeight.sh, run_temps.sh, timing_vectorize.sh, SQLinR.R, apply1.R, stochrickvect.R, get_TreeHeight.R, key_west_correlations.tex, PP_Regress.R, PP_Regress_loc.R, my_table.tex, Vectorize1.R, MulExplInter.R, temp_p.txt, temp_d.txt, DataWrangTidy.R, anova.R, TAutoCorr.R, Ricker.R, MulExpl.R, sample.R, Ricker.py, get_TreeHeight.py, TreeHeight.R, basic_io.R, temp_N.txt, break.R, Vectorize1.py, PP_Lattice.R, browse.R, Vectorize2.py, DataWrang.R, Vectorize2.R, boilerplate.R, next.R

Found the following extra files: Rplots.pdf, .Rhistory, boxplot.pdf, key_west_correlations.pdf, .RData, temp_graph.pdf
0.5 pt deducted per extra file

Current Marks = 95.0

======================================================================
Testing script/code files...

======================================================================
Inspecting script file temp_Nc.txt...

File contents are:
**********************************************************************
5**********************************************************************

Testing temp_Nc.txt...

======================================================================
Inspecting script file temp_c.txt...

File contents are:
**********************************************************************
0.3261697**********************************************************************

Testing temp_c.txt...

======================================================================
Inspecting script file test_get_TreeHeight.sh...

File contents are:
**********************************************************************
# Demonstrates the R script get_TreeHeight.R

Rscript get_TreeHeight.R trees.csv
**********************************************************************

Testing test_get_TreeHeight.sh...

Output (only first 500 characters): 

**********************************************************************

**********************************************************************

Code ran without errors

Time consumed = 0.06031s

======================================================================
Inspecting script file run_temps.sh...

File contents are:
**********************************************************************
# runs TAutoCorr.R and then key_west_correlations.tex to produce a
# document detailing results of the p-test.

Rscript TAutoCorr.R # runs TAutoCorr.R to carry out calculations

# compile the document several times to avoid cross-referencing issues
latex key_west_correlations.tex
latex key_west_correlations.tex
latex key_west_correlations.tex

# delete unnecessary files
rm key_west_correlations.log
rm key_west_correlations.aux
**********************************************************************

Testing run_temps.sh...

Output (only first 500 characters): 

**********************************************************************
    Year     Temp
1   1901 23.75000
2   1902 24.66667
3   1903 24.71667
4   1904 24.51667
5   1905 24.88333
6   1906 24.63333
7   1907 25.24167
8   1908 24.90000
9   1909 24.76667
10  1910 24.02500
11  1911 25.28333
12  1912 25.20833
13  1913 25.19167
14  1914 24.70000
15  1915 24.56667
16  1916 24.83333
17  1917 24.64167
18  1918 25.24167
19  1919 25.17500
20  1920 24.78333
21  1921 25.40000
22  1922 25.55833
23  1923 25.21667
24  1924 25.19167
25  1925 25.46667
26  1926 25.05000
27  1927 25.641
**********************************************************************

Encountered error:
Loading required package: xtable

======================================================================
Inspecting script file timing_vectorize.sh...

File contents are:
**********************************************************************
start=`date +%s%N | cut -b1-13`
Rscript Vectorize1.R >/dev/null
end=`date +%s%N | cut -b1-13`
time=$((end-start))

echo "The time taken to run Vectorize1.R is" $time "ms"

start=`date +%s%N | cut -b1-13`
python Vectorize1.py
end=`date +%s%N | cut -b1-13`
time=$((end-start))

echo "The time taken to run Vectorize1.py is" $time "ms"
echo ""


start=`date +%s%N | cut -b1-13`
Rscript Vectorize2.R
end=`date +%s%N | cut -b1-13`
time=$((end-start))

echo "The time taken to run Vectorize2.R is" $time "ms"


start=`date +%s%N | cut -b1-13`
python Vectorize2.py
end=`date +%s%N | cut -b1-13`
time=$((end-start))

echo "The time taken to run Vectorize2.py is" $time "ms"
**********************************************************************

Testing timing_vectorize.sh...

Output (only first 500 characters): 

**********************************************************************
The time taken to run Vectorize1.R is 454 ms
The time taken to run Vectorize1.py is 1128 ms

The time taken to run Vectorize2.R is 403 ms
The time taken to run Vectorize2.py is 242 ms

**********************************************************************

Code ran without errors

Time consumed = 2.23297s

======================================================================
Inspecting script file SQLinR.R...

File contents are:
**********************************************************************
#install the sqlite package
install.packages('sqldf')

# To load the packages
library(sqldf)

# The command below opens a connection to the database.
#If the database does not yet exist, one is created in the working directory of R.
db <- dbConnect(SQLite(), dbname='Test.sqlite')

# Now let's enter some data to the table
# Using the db connection to our database, the data are entered using SQL queries
# The next command just create the table
dbSendQuery(conn = db,
            "CREATE TABLE Consumer
       (OriginalID TEXT,
        ConKingdom TEXT,
        ConPhylum TEXT,
        ConSpecies TEXT)")

# Once the table is created, we can enter the data.
#INSERT specifies where the data is entered (here the School table).
#VALUES contains the data

 dbSendQuery(conn = db,
         "INSERT INTO Consumer
         VALUES (1, 'Animalia', 'Arthropoda', 'Chaoborus trivittatus')")
 dbSendQuery(conn = db,
         "INSERT INTO Consumer
         VALUES (2, 'Animalia', 'Arthropoda', 'Chaoborus americanus')")
 dbSendQuery(conn = db,
         "INSERT INTO Consumer
         VALUES (3, 'Animalia', 'Chordata', 'Stizostedion vitreum')")


# Once we have our table, we can query the results using:

dbGetQuery(db, "SELECT * FROM Consumer")
dbGetQuery(db, "SELECT * FROM Consumer WHERE ConPhylum='Chordata'")


# Tables can be also imported from csv files.
# As example, let's use the Biotraits dataset.
# The easiest way is to read the csv files into R as data frames.
# Then the data frames are imported into the database.

Resource <- read.csv("../Data/Resource.csv")  # Read csv files into R

# Import data frames into database
 dbWriteTable(conn = db, name = "Resource", value = Resource, row.names = FALSE)

# Check that the data have been correctly imported into the School table.
 dbListTables(db)                 # The tables in the database
 dbListFields(db,"Resource")       # The columns in a table
 dbReadTable(db, "Resource")    # The data in a table

# Before leaving RSQLite, there is a bit of tidying-up to do.
# The connection to the database is closed, and as precaution
# the three data frames are removed from R’s environment.
 dbDisconnect(db)            # Close connection
 rm(list = c("Resource"))   # Remove data frames


**********************************************************************

Testing SQLinR.R...

Output (only first 500 characters): 

**********************************************************************

**********************************************************************

Encountered error:
Installing package into ‘/usr/local/lib/R/site-library’
(as ‘lib’ is unspecified)
Warning in install.packages("sqldf") :
  'lib = "/usr/local/lib/R/site-library"' is not writable
Error in install.packages("sqldf") : unable to install packages
Execution halted

======================================================================
Inspecting script file apply1.R...

File contents are:
**********************************************************************
## apply: applying the same function to rows/columns of a matrix

# Build a random matrix
M <- matrix(rnorm(100),10,10)

# Take the mean of each row
RowMeans <- apply(M,1,mean)
print(RowMeans)

# Now the variance
RowVars <- apply(M,1,var)
print(RowVars)

# By column
ColMeans <- apply(M,2,mean)
print(ColMeans)

SomeOperation <- function(v){
	
	# This function returns 100v unless the sum of the entries of v is
	# zero, in which case it returns v.
	
	if (sum(v) > 0){
		return (v*100)
	}
	return (v)
}

M <- matrix(rnorm(100),10,10)
print (apply(M,1,SomeOperation))

**********************************************************************

Testing apply1.R...

Output (only first 500 characters): 

**********************************************************************
 [1]  0.423034221  0.060483698  0.057794782 -0.319250766  0.002502054
 [6] -0.345186831 -0.489498760  0.305436876  0.290567937 -0.105680504
 [1] 0.5286855 1.6740436 1.0003555 0.7182276 0.7200693 0.7100078 0.5072085
 [8] 2.0607069 1.6355676 1.5571611
 [1]  0.70445076 -0.23932851 -0.67192284  0.02530262 -0.26348834  0.27261072
 [7] -0.18883183  0.20012616  0.27700922 -0.23572524
             [,1]       [,2]         [,3]        [,4]        [,5]      [,6]
 [1,] -0.27635478 -1.6365815  0.857316384 -0.
**********************************************************************

Code ran without errors

Time consumed = 0.05832s

======================================================================
Inspecting script file stochrickvect.R...

File contents are:
**********************************************************************
# Another code that vectorizes stochrick, with improved performance: 

stochrickvect<-function(p0=runif(1000,.5,1.5),r=1.2,K=1,sigma=0.2,numyears=100)
{
  
  timeseries <- 0:numyears # the time series
  
  number_pops <- length(p0) # the number of populations
  
  N <- matrix(NA,numyears+1,number_pops)
  N[1,] <- p0 # initialise
  
  for (yr in 1:numyears) # loop through the populations
  {
	  N[yr+1,] <- N[yr,]*exp(r*(1-N[yr,]/K)+rnorm(number_pops,0,sigma))
	}

  return(N)

}

plot(populations[,1],type='l')
N <- stochrickvect()
for (n in c(367,370,373,376)){
	lines(populations[,n],col=n)
}

print("Vectorized Stochastic Ricker takes:")
print(system.time(stochrickvect()))
**********************************************************************

Testing stochrickvect.R...

Output (only first 500 characters): 

**********************************************************************

**********************************************************************

Encountered error:
Error in plot(populations[, 1], type = "l") : 
  object 'populations' not found
Execution halted

======================================================================
Inspecting script file get_TreeHeight.R...

File contents are:
**********************************************************************
# Uses the function TreeHeightFnc to take the chosen file and output a 
# file containing the heights of the trees.

filename <- commandArgs(trailingOnly=TRUE) # taking the argument

filepath <- paste("../Data/",filename,sep="") 
# converting to a relative path

filenocsv <- sub("\\.csv$", "", filename) 
# removing the .csv from the filename

destinationpath <- paste("../Results/",filenocsv,"_treeheights.csv") 
# constructing the filepath for the output file

# read the tree data
TreeData <- read.csv(filepath, header=TRUE)

Species <- TreeData[,1] # extract species names
Distances <- TreeData[,2] # extract distances (in m)
Angles <- TreeData[,3] # extract angles of elevation (in degrees)

TreeHeight <- function(degrees,distance){
	radians <- degrees * pi / 180 # convert to radians
	height <- distance * tan(radians) # compute opposite side length
#~ 	print(paste("Tree height is:", height))
	
	return (height)
}

Heights <- TreeHeight(Angles, Distances) 
# compute the heights for our dataset

NewData <- data.frame(Species,Distances,Angles,Heights)
# put the new heights into a datafram

names(NewData) <- c("Species","Distance.m","Angle.degrees","Height.m")
# set headers

write.csv(NewData, destinationpath, row.names=FALSE) # write to file
**********************************************************************

Testing get_TreeHeight.R...

Output (only first 500 characters): 

**********************************************************************

**********************************************************************

Encountered error:
Error in read.table(file = file, header = header, sep = sep, quote = quote,  : 
  no lines available in input
Calls: read.csv -> read.table
Execution halted

======================================================================
Inspecting script file key_west_correlations.tex...

File contents are:
**********************************************************************
%&pdflatex

% Please use the bash script run_temps.sh to compile this script, in
% order to produce the data from TAutoCorr.R

\documentclass[12pt]{article}

\usepackage{graphicx}
\usepackage{listings}
\lstset{breaklines=true}

\title{Calculating a p-value for temperature data}
\author{Lauren Enright}
\date{}

\begin{document}
	\maketitle
	
	\begin{abstract}
		Analysis of global temperature data is key to understanding
		meteorological issues such as weather systems and global 
		warming. Here we use the mean annual measured temperature at a 
		single geographical location to compute the appropriate p-value
		of its successive-year temperature population. We conclude that
		with
		\input{temp_d.txt}\% certainty, the mean annual temperature in 
		a given year was correlated with the previous year.
	\end{abstract}
	
	\section{Introduction}
		The mean annual temperature in Key West, Florida was recorded
		for each year during the 20th century (see table  
		\ref{temp_table} and figure \ref{temp_graph}).
		
		\input{my_table}
		
		\begin{figure}
		\includegraphics[scale=0.8]{temp_graph.pdf}
		\caption{Graph of data from table \ref{temp_table}.}
		\label{temp_graph}
		\end{figure}
		
		\kern15pt
		We would like to examine whether annual temperature is
		correlated to the previous (and next) year's temperature.
		Therefore we will compute the p-value for correlation between
		pairs of annual temperatures.
		
	\section{Materials \& Methods}
		First we calculate the correlation between successive year pairs
		of temperatures; this will be $c$.
		
		\kern15pt
		Next we carry out a randomised trial in which the temperatures
		are shuffled, and once again the correlation between the
		temperature of "successive" years is computed.
		
		\kern15pt
		This randomised trial is carried out $N$ times. We compute the
		number of trials in which the trial correlation was greater than
		$c$, and denote this $N_{>c}$.
		
		\kern15pt
		We use the following method to calculate the $p$-value for this
		dataset:
		$$
		p = \frac{N_{>c}}{N}.
		$$
	
	\section{Results}
		The correlation between successive year pairs of temperatures 
		was found to be
		$c=$\input{temp_c.txt}.
		
		\kern15pt
		We carried out 
		$N=$ \input{temp_N.txt}
		 randomised trials. In figure
		\ref{boxplot} the randomised trial correlations are plotted in
		a boxplot, alongside the actual
		correlation of the data. As expected, the mean correlation for
		the random trials is close to $0$, as we do not expect the
		successive temperatures in the trials to be correlated.
		
		\begin{figure}
		\includegraphics[scale=0.8]{boxplot.pdf}
		\caption{Boxplot of the randomised trial correlations alongside
		the actual data correlation.}
		\label{boxplot}
		\end{figure}
		
		\kern15pt
		There were 
		$N_{>c}=$ \input{temp_Nc.txt}
		 trials in which the trial correlation was
		greater than the actual correlation 
		$c=$\input{temp_c.txt}. 
		We therefore computed a
		p-value of 
		$p=$\input{temp_p.txt}. This means that with a
		\input{temp_d.txt}\%
		probability, annual mean temperature is correlated with the
		previous year's temperature.
		
	\section{Future work}
		In the future, the number of trials $N$ should be increased, in
		order to obtain a more accurate result for the p-value.
	
	
\end{document}
**********************************************************************

Testing key_west_correlations.tex...

======================================================================
Inspecting script file PP_Regress.R...

File contents are:
**********************************************************************
# This script uses the data:
##	EcolArchives-E089-51-D1.csv
# and produces ** files:
##	PP_Regress.pdf
##	PP_Regress_Results.csv

# empty the workspace
rm(list=ls())

# close any open PDFs
if (length(dev.list())>0){
	dev.off()
}

# open the lattice structure
library(ggplot2)
library(lattice)
library(ggthemes)

# read the data
MyDF <- read.csv("../Data/EcolArchives-E089-51-D1.csv")

#### creating the graph PDF ####

# open a blank PDF
pdf("../Results/PP_Regress.pdf",9,11)

# input data
p <- ggplot(MyDF, 
	aes(x=Prey.mass, 
		y=Predator.mass, 
		# choose colour based on predator lifestage
		colour=Predator.lifestage))+
	# legend entries in one row
	guides(colour=guide_legend(nrow=1))+
		# legend settings
	theme(legend.position="bottom",
		legend.title=element_text(face="bold", size=12),
		legend.text=element_text(size=12),
		# panel and axis lines
		panel.background=element_rect(fill="white",colour="grey"),
		panel.border=element_rect(colour="gray66",fill=NA,size=0.5),
		panel.grid.major=element_line(colour="gray90",size=0.5),
		panel.grid.minor=element_line(colour="gray97"),
		# axis text
		axis.text=element_text(colour="black",size=12),
		axis.title=element_text(size=14),
		# aspect ratio of each graph
		aspect.ratio=1/2) +
	# settings for the plot points
	geom_point(shape=I(3),size=I(2)) +
	# linear regression
	geom_smooth(method="lm", fullrange=TRUE, size=0.5) +
	# titles and axis titles
	labs(title="",x="Prey Mass in grams",y="Predator mass in grams")+
	# plot on a log scale
	scale_x_log10()+scale_y_log10()+
	# put into facets by feeding type
	facet_grid(Type.of.feeding.interaction ~.)+
	# settings for the facet titles
	theme(strip.background=element_rect(colour="gray66",fill="lightgrey",size=0.5),
		strip.text=element_text(size=12))

# print to PDF
suppressWarnings(print(p)) 
# to suppress warnings coming from the linear regression in geom_smooth
# where lines cannot be plotted as there are not enough points
	
#### outputting linear regression results to csv ####

# find all the combinations of feeding types and predator lifestages
combos <- data.frame(MyDF$Type.of.feeding.interaction,MyDF$Predator.lifestage)
combos <- as.matrix(unique(combos))
l_c <- length(combos[,1])

# preallocating a matrix to contain the results
output_mat <- matrix(rep(NA,8*l_c),l_c,8)

# an index
i <- 1
# cycling through feeding types
for (type in combos[,1])
{
	# the predator lifestage
	stage <- combos[i,2]
	
	# extracting the subset from the dataframe
	new_DF <- subset(MyDF, Type.of.feeding.interaction==type & Predator.lifestage==stage)
	# how many samples are there in this analysis?
	no_samps <- length(new_DF[,1])
	
	# carry out the regression analysis
	my_lm <- summary(lm(log(Predator.mass) ~ Prey.mass, data=new_DF))
	
	# save data
	output_mat[i,1] <- type
	output_mat[i,2] <- stage
	output_mat[i,3] <- no_samps
	if (length(my_lm$coefficients[,1])>1){ 
		# if there was enough data to find a regression slope
		output_mat[i,4] <- my_lm$coefficients[2,1]
	}
	output_mat[i,5] <- my_lm$coefficients[1,1]
	output_mat[i,6] <- my_lm$r.squared
	if (length(my_lm$fstatistic[1])>0){
		# if there was enough data to find an f statistic
		output_mat[i,7] <- my_lm$fstatistic[1]
	}
	output_mat[i,8] <- my_lm$coefficients[1,4]
	
	i=i+1
}

# write to dataframe
output_DF <- data.frame(output_mat)
colnames(output_DF) <- c("Type.of.feeding.interaction",
							"Predator.lifestage",
							"Number.of.samples",
							"Regression.slope",
							"Regression.intercept",
							"R.squared",
							"F.statistic.value",
							"p.value")

# output to csv
write.csv(output_DF, "../Results/PP_Regress_Results.csv", row.names=FALSE) # write to file
**********************************************************************

Testing PP_Regress.R...

Output (only first 500 characters): 

**********************************************************************

**********************************************************************

Encountered error:
Error in library(ggthemes) : there is no package called ‘ggthemes’
Execution halted

======================================================================
Inspecting script file PP_Regress_loc.R...

File contents are:
**********************************************************************
# This script uses the data:
##	EcolArchives-E089-51-D1.csv
# and produces ** files:
##	PP_Regress.pdf
##	PP_Regress_loc_Results.csv

# empty the workspace
rm(list=ls())

# open the lattice structure
library(ggplot2)
library(lattice)
library(ggthemes)

# read the data
MyDF <- read.csv("../Data/EcolArchives-E089-51-D1.csv")
	
#### outputting linear regression results to csv ####

# find all the combinations of feeding types, predator lifestages and locations
combos <- data.frame(MyDF$Type.of.feeding.interaction,
					MyDF$Predator.lifestage,
					MyDF$Location)
combos <- as.matrix(unique(combos))
l_c <- length(combos[,1])

# preallocating a matrix to contain the results
output_mat <- matrix(rep(NA,9*l_c),l_c,9)

# an index
i <- 1
# cycling through feeding types
for (type in combos[,1])
{
	# the predator lifestage and location
	stage <- combos[i,2]
	loc <- combos[i,3]
	
	# extracting the subset from the dataframe
	new_DF <- subset(MyDF, Type.of.feeding.interaction==type 
							& Predator.lifestage==stage 
							& Location==loc)
	# how many samples are there in this analysis?
	no_samps <- length(new_DF[,1])
	
	# carry out the regression analysis
	suppressWarnings(my_lm <- summary(lm(Predator.mass ~ Prey.mass, data=new_DF)))
	
	# save data
	output_mat[i,1] <- type
	output_mat[i,2] <- stage
	output_mat[i,3] <- loc
	output_mat[i,4] <- no_samps
	if (length(my_lm$coefficients[,1])>1){ 
		# if there was enough data to find a regression slope
		output_mat[i,5] <- my_lm$coefficients[2,1]
	}
	output_mat[i,6] <- my_lm$coefficients[1,1]
	output_mat[i,7] <- my_lm$r.squared
	if (length(my_lm$fstatistic[1])>0){
		# if there was enough data to find an f statistic
		output_mat[i,8] <- my_lm$fstatistic[1]
	}
	output_mat[i,9] <- my_lm$coefficients[1,4]
	
	i=i+1
}

# write to dataframe
output_DF <- data.frame(output_mat)
colnames(output_DF) <- c("Type.of.feeding.interaction",
							"Predator.lifestage",
							"Location",
							"Number.of.samples",
							"Regression.slope",
							"Regression.intercept",
							"R.squared",
							"F.statistic.value",
							"p.value")

# output to csv
write.csv(output_DF, "../Results/PP_Regress_loc_Results.csv", row.names=FALSE) # write to file
**********************************************************************

Testing PP_Regress_loc.R...

Output (only first 500 characters): 

**********************************************************************

**********************************************************************

Encountered error:
Error in library(ggthemes) : there is no package called ‘ggthemes’
Execution halted

======================================================================
Inspecting script file my_table.tex...

File contents are:
**********************************************************************
% latex table generated in R 3.2.3 by xtable 1.7-4 package
% Tue Nov 28 08:04:44 2017
\begin{table}[ht]
\centering
\begin{tabular}{rrrrrrrrrr}
  \hline
Year & Temp & Year & Temp & Year & Temp & Year & Temp & Year & Temp \\ 
  \hline
1901 & 23.75 & 1921 & 25.40 & 1941 & 25.19 & 1961 & 25.50 & 1981 & 25.03 \\ 
  1902 & 24.67 & 1922 & 25.56 & 1942 & 25.17 & 1962 & 25.22 & 1982 & 26.09 \\ 
  1903 & 24.72 & 1923 & 25.22 & 1943 & 25.22 & 1963 & 25.12 & 1983 & 24.78 \\ 
  1904 & 24.52 & 1924 & 25.19 & 1944 & 25.43 & 1964 & 25.59 & 1984 & 25.15 \\ 
  1905 & 24.88 & 1925 & 25.47 & 1945 & 25.48 & 1965 & 26.26 & 1985 & 25.54 \\ 
  1906 & 24.63 & 1926 & 25.05 & 1946 & 26.01 & 1966 & 24.62 & 1986 & 25.68 \\ 
  1907 & 25.24 & 1927 & 25.64 & 1947 & 25.65 & 1967 & 26.22 & 1987 & 25.26 \\ 
  1908 & 24.90 & 1928 & 24.83 & 1948 & 26.28 & 1968 & 24.93 & 1988 & 25.20 \\ 
  1909 & 24.77 & 1929 & 25.34 & 1949 & 25.82 & 1969 & 24.97 & 1989 & 25.90 \\ 
  1910 & 24.02 & 1930 & 24.89 & 1950 & 25.60 & 1970 & 24.81 & 1990 & 26.29 \\ 
  1911 & 25.28 & 1931 & 24.56 & 1951 & 25.63 & 1971 & 25.62 & 1991 & 26.35 \\ 
  1912 & 25.21 & 1932 & 25.60 & 1952 & 25.48 & 1972 & 26.04 & 1992 & 25.54 \\ 
  1913 & 25.19 & 1933 & 25.55 & 1953 & 25.62 & 1973 & 25.43 & 1993 & 25.68 \\ 
  1914 & 24.70 & 1934 & 25.29 & 1954 & 25.18 & 1974 & 25.90 & 1994 & 26.13 \\ 
  1915 & 24.57 & 1935 & 25.12 & 1955 & 25.40 & 1975 & 26.27 & 1995 & 25.66 \\ 
  1916 & 24.83 & 1936 & 25.21 & 1956 & 25.64 & 1976 & 25.27 & 1996 & 25.00 \\ 
  1917 & 24.64 & 1937 & 25.26 & 1957 & 26.03 & 1977 & 24.92 & 1997 & 25.82 \\ 
  1918 & 25.24 & 1938 & 25.43 & 1958 & 24.71 & 1978 & 25.31 & 1998 & 25.78 \\ 
  1919 & 25.18 & 1939 & 25.49 & 1959 & 25.48 & 1979 & 25.75 & 1999 & 25.53 \\ 
  1920 & 24.78 & 1940 & 24.57 & 1960 & 24.99 & 1980 & 25.53 & 2000 & 25.37 \\ 
   \hline
\end{tabular}
\caption{Mean annual temperature recorded in Key West, Florida.} 
\label{temp_table}
\end{table}
**********************************************************************

Testing my_table.tex...

======================================================================
Inspecting script file Vectorize1.R...

File contents are:
**********************************************************************
M <- matrix(runif(1000000),1000,1000)

SumAllElements <- function(M){
	Dimensions <- dim(M)
	Tot <- 0
	for (i in 1:Dimensions[1]){
		for (j in 1:Dimensions[2]){
			Tot <- Tot + M[i,j]
		}
	}
	return (Tot)
}

SumAllElements(M)

#~ # This on my computer takes about 1 sec
#~ print(system.time(SumAllElements(M)))

#~ # While this takes about 0.01 sec
#~ print(system.time(sum(M)))
**********************************************************************

Testing Vectorize1.R...

Output (only first 500 characters): 

**********************************************************************
[1] 500291.2

**********************************************************************

Code ran without errors

Time consumed = 0.45346s

======================================================================
Inspecting script file MulExplInter.R...

File contents are:
**********************************************************************
# Chapter 8: Multiple variables and interactions
# load and check the data
load('mammals.Rdata')
ls()
str(mammals)


# 1) interaction model
model <- lm(logCvalue ~ TrophicLevel * GroundDwelling, data= mammals)
par(mfrow=c(2,2))
plot(model)

anova(model)
summary(model)


# data frame of combinations of variables
gd <- rep(levels(mammals$GroundDwelling), times=3)
print(gd)
tl <- rep(levels(mammals$TrophicLevel), each=2)
print(tl)
predVals  <- data.frame(GroundDwelling=gd, TrophicLevel=tl)

# predict using the new data frame
predVals$predict <- predict(model, newdata=predVals)
print(predVals)

# 3) analysis of covariance

odonata <- read.csv('GenomeSize.csv')
odonata$logGS <- log(odonata$GenomeSize)
odonata$logBW <- log(odonata$BodyWeight)

odonModel <- lm(logBW ~ logGS * Suborder, data=odonata)
summary(odonModel)
anova(odonModel)

# 4) get predictions

# get the range of the data
rng  <- range(odonata$logGS)
# get a sequence of values spanning the range
span <- seq(rng[1], rng[2], length=100)

# get the predicted values
ZygoVals <- data.frame(logGS=span, Suborder='Zygoptera')
ZygoPred <- predict(odonModel, newdata=ZygoVals, se.fit=TRUE)

AnisoVals <- data.frame(logGS=span, Suborder='Anisoptera')
AnisoPred <- predict(odonModel, newdata=AnisoVals, se.fit=TRUE)

# plot the scatterplot of the data
plot(logBW ~ logGS, data=odonata, col=Suborder)

# add the predicted lines
lines(AnisoPred$fit ~ span, col='black')
lines(AnisoPred$fit + AnisoPred$se.fit ~ span, col='black', lty=2)
lines(AnisoPred$fit - AnisoPred$se.fit ~ span, col='black', lty=2)

lines(ZygoPred$fit ~ span, col='red')
lines(ZygoPred$fit + ZygoPred$se.fit ~ span, col='red', lty=2)
lines(ZygoPred$fit - ZygoPred$se.fit ~ span, col='red', lty=2)
**********************************************************************

Testing MulExplInter.R...

Output (only first 500 characters): 

**********************************************************************

**********************************************************************

Encountered error:
Error in readChar(con, 5L, useBytes = TRUE) : cannot open the connection
Calls: load -> readChar
In addition: Warning message:
In readChar(con, 5L, useBytes = TRUE) :
  cannot open compressed file 'mammals.Rdata', probable reason 'No such file or directory'
Execution halted

======================================================================
Inspecting script file temp_p.txt...

File contents are:
**********************************************************************
0.0003**********************************************************************

Testing temp_p.txt...

======================================================================
Inspecting script file temp_d.txt...

File contents are:
**********************************************************************
99.97**********************************************************************

Testing temp_d.txt...

======================================================================
Inspecting script file DataWrangTidy.R...

File contents are:
**********************************************************************
################################################################
#### Wrangling the Pound Hill Dataset using dplyr and tidyr ####
################################################################

library(dplyr)
library(tidyr)

view(

############# Load the dataset ###############
# header = false because the raw data don't have real headers
MyData <- as.matrix(read.csv("../Data/PoundHillData.csv",header = F)) 

# header = true because we do have metadata headers
MyMetaData <- read.csv("../Data/PoundHillMetaData.csv",header = T, sep=";", stringsAsFactors = F)

############# Inspect the dataset ###############
dplyr::tbl_df(MyData)
dim(MyData)
dplyr::glimpse(MyData)

############# Transpose ###############
MyData <- t(MyData)
head(MyData)
dim(MyData)

############# Replace species absences with zeros ###############
MyData[MyData == ""] = 0

############# Convert raw matrix to data frame ###############
TempData <- as.data.frame(MyData[-1,],stringsAsFactors = F) #stringsAsFactors = F is important!
colnames(TempData) <- MyData[1,] # assign column names from original data

############# Convert from wide to long format  ###############
require(reshape2) # load the reshape2 package

MyWrangledData <- melt(TempData, id=c("Cultivation", "Block", "Plot", "Quadrat"), 
variable.name = "Species", value.name = "Count")
MyWrangledData[, "Cultivation"] <- as.factor(MyWrangledData[, "Cultivation"])
MyWrangledData[, "Block"] <- as.factor(MyWrangledData[, "Block"])
MyWrangledData[, "Plot"] <- as.factor(MyWrangledData[, "Plot"])
MyWrangledData[, "Quadrat"] <- as.factor(MyWrangledData[, "Quadrat"])
MyWrangledData[, "Count"] <- as.numeric(MyWrangledData[, "Count"])

str(MyWrangledData)
head(MyWrangledData)
dim(MyWrangledData)

############# Start exploring the data (extend the script below)!  ###############
**********************************************************************

Testing DataWrangTidy.R...

Output (only first 500 characters): 

**********************************************************************

**********************************************************************

Encountered error:

Attaching package: ‘dplyr’

The following objects are masked from ‘package:stats’:

    filter, lag

The following objects are masked from ‘package:base’:

    intersect, setdiff, setequal, union

Error in library(tidyr) : there is no package called ‘tidyr’
Execution halted

======================================================================
Inspecting script file anova.R...

File contents are:
**********************************************************************
# CHAPTER 6. LINEAR MODELS: ANALYSIS OF VARIANCE
# load and check the data
mammals <- read.csv('../Data/MammalData.csv')
str(mammals)
summary(mammals)

# 1) Boxplots of C values by Trophic level
plot(meanCvalue ~ TrophicLevel, data= mammals)
mammals$logCvalue <- log(mammals$meanCvalue)
plot(logCvalue ~ TrophicLevel, data= mammals)

# 2) Boxplots of C values by Ground Dwelling
plot(meanCvalue ~ GroundDwelling, data= mammals)
plot(logCvalue ~ GroundDwelling, data= mammals)

# 3) Barplots/ CI plots

# get standard error of the mean from a set of values (x)
seMean <- function(x){
	# get rid of missing values
	x <- na.omit(x)
	# calculate the standard error
	se <- sqrt(var(x)/length(x))
	# tell the function to report the standard error
	return(se)
}

# barplot for trophic level

trophMeans <- tapply(mammals$logCvalue, mammals$TrophicLevel, FUN=mean)
print(trophMeans)
trophSE <- tapply(mammals$logCvalue, mammals$TrophicLevel, FUN=seMean)
print(trophSE)

# get the upper and lower limits of the error bars
upperSE <- trophMeans + trophSE
lowerSE <- trophMeans - trophSE

# get a barplot - this function can also report where the 
# centres of the bars are on the x-axis
# - set the y axis limits to contain the error bars
barMids <- barplot(trophMeans, ylim=c(0, max(upperSE)),
                   ylab='log C value (pg)')

# Now use the function to add error bars
# - draws arrows between the points (x0,y0) and (x1,y1)
# - arrow heads at each end (code=3) and at 90 degree angles
arrows(barMids, upperSE, barMids, lowerSE, ang=90, code=3)


# barplot for ground dwelling

groundMeans <- tapply(mammals$logCvalue, mammals$GroundDwelling, FUN=mean)
print(groundMeans)
groundSE <- tapply(mammals$logCvalue, mammals$GroundDwelling, FUN=seMean)
print(groundSE)

# get the upper and lower limits of the error bars
upperSE <- groundMeans + groundSE
lowerSE <- groundMeans - groundSE

# get a barplot - this function can also report where the 
# centres of the bars are on the x-axis
# - set the y axis limits to contain the error bars
barMids <- barplot(groundMeans, ylim=c(0, max(upperSE)), 
                   ylab='log C value (pg)')

# Now use the function to add error bars
# - draws arrows between the points (x0,y0) and (x1,y1)
# - arrow heads at each end (code=3) and at 90 degree angles
arrows(barMids, upperSE, barMids, lowerSE, ang=90, code=3)


# 4) Group mean plots
# Load the gplots package
library(gplots)
# Get plots of group means and standard errors
par(mfrow=c(1,2))
plotmeans(logCvalue ~ TrophicLevel, data=mammals, connect=FALSE)
plotmeans(logCvalue ~ GroundDwelling, data=mammals, connect=FALSE)


# 5) Linear models
trophicLM <- lm(logCvalue ~ TrophicLevel, data=mammals)
anova(trophicLM)
summary(trophicLM)

groundLM <- lm(logCvalue ~ GroundDwelling, data=mammals)
anova(groundLM)
summary(groundLM)

# 6) Diagnostic plots

par(mfrow=c(2,2))
plot(trophicLM)
plot(groundLM)

# 7) Tukey tests
TukeyTroph <- TukeyHSD(aov(trophicLM))
print(TukeyTroph)

# las= 1 turns labels horizontal
# mar makes the left margin wider (bottom, left, top, right)
par(las=1, mar=c(4,10,3,1)) 
plot(TukeyTroph)

TukeyGround <- TukeyHSD(aov(groundLM))
print(TukeyGround)
plot(TukeyGround)

# 8) Factor independence
factorTable <- table(mammals$GroundDwelling, mammals$TrophicLevel )
print(factorTable)
chisq.test(factorTable)

**********************************************************************

Testing anova.R...

Output (only first 500 characters): 

**********************************************************************

**********************************************************************

Encountered error:
Error in file(file, "rt") : cannot open the connection
Calls: read.csv -> read.table -> file
In addition: Warning message:
In file(file, "rt") :
  cannot open file '../Data/MammalData.csv': No such file or directory
Execution halted

======================================================================
Inspecting script file TAutoCorr.R...

File contents are:
**********************************************************************
## This script computes the p-value for successive year correlation in
## annual mean temperature for a dataset.
##
## Please run the bash script 'run_temps.sh' in order to carry out this
## computation, and compile a PDF 'key_west_correlations.pdf'.

# load the data
tempdata <- load("../Data/KeyWestAnnualMeanTemperature.RData")

require(xtable) # a table package

#~ # examine the data
print(ats, include.rownames=FALSE)

# create a table to go into the LaTeX file
ats_formatted <- data.frame(ats[1:20,1],ats[1:20,2],ats[21:40,1],ats[21:40,2],ats[41:60,1],ats[41:60,2],ats[61:80,1],ats[61:80,2],ats[81:100,1],ats[81:100,2])
names(ats_formatted) <- c('Year','Temp','Year','Temp','Year','Temp','Year','Temp','Year','Temp')
print(xtable(ats_formatted, label="temp_table",caption="Mean annual temperature recorded in Key West, Florida."),file="my_table.tex", include.rownames=FALSE)


# setting up a plotting environment
mypar <- par(mfrow=c(1,2))
layout(matrix(c(1,1,2,2),2,2),widths=c(1,1), heights=c(1,1))

# plotting the data
pdf("temp_graph.pdf")
plot(ats$Year, ats$Temp, type="l", col="#00489C", ann=FALSE)
title(main="Key West annual mean temperature", xlab="Year", ylab="Temperature")
dev.off()

no_points <- length(ats$Temp) # compute the number of data points

####### Successive-year pairs #######

# create the matrix of successive-year pairs
pairs <- matrix(c(ats$Temp[1:(no_points-1)],ats$Temp[2:no_points]),no_points-1,2,byrow=FALSE)

# compute the successive-year correlation
succ_corr <- cor(pairs[,1],pairs[,2])

# display the correlation
print("The correlation of successive year pairs is:")
print(succ_corr)


####### Random pairs #######

# number of trials
no_trials <- 10000

# preallocate the vector of random-pair correlations
rand_corr <- rep(NA, no_trials)

for (i in 1:no_trials){
	
	# shuffle the data randomly
	data <- sample(ats$Temp)

	# compute the random-pair correlation
	rand_corr[i] <- cor(data[1:(no_points-1)], data[2:no_points])
	
}

# boxplot to compare the results
pdf("boxplot.pdf")
boxplot(rand_corr,succ_corr, names=c("Random permutation", "Successive year pairs"), horizontal=TRUE)
title(main="Correlation of temperature data", ylab="Correlation coefficient")
dev.off()
par(mypar)

# compute the fraction of trials in which the correlation was greater
# 	than the successive-year pair correlation
p_value <- sum(rand_corr>succ_corr) / no_trials

# display the p-value
print("The p-value for the temperatures is:")
print(format(p_value, scientific=FALSE))

# save the variables to text files, for use in LaTeX
cat(c(no_trials),sep="",file="temp_N.txt")
cat(c(p_value*no_trials),sep="",file="temp_Nc.txt")
cat(c(format(p_value, scientific=FALSE)),sep="",file="temp_p.txt")
cat(c(succ_corr),sep="",file="temp_c.txt")
cat(c(100*(1-p_value)),sep="", file="temp_d.txt")
**********************************************************************

Testing TAutoCorr.R...

Output (only first 500 characters): 

**********************************************************************
    Year     Temp
1   1901 23.75000
2   1902 24.66667
3   1903 24.71667
4   1904 24.51667
5   1905 24.88333
6   1906 24.63333
7   1907 25.24167
8   1908 24.90000
9   1909 24.76667
10  1910 24.02500
11  1911 25.28333
12  1912 25.20833
13  1913 25.19167
14  1914 24.70000
15  1915 24.56667
16  1916 24.83333
17  1917 24.64167
18  1918 25.24167
19  1919 25.17500
20  1920 24.78333
21  1921 25.40000
22  1922 25.55833
23  1923 25.21667
24  1924 25.19167
25  1925 25.46667
26  1926 25.05000
27  1927 25.641
**********************************************************************

Encountered error:
Loading required package: xtable

======================================================================
Inspecting script file Ricker.R...

File contents are:
**********************************************************************
Ricker <- function(N0=1, r=1, K=10, generations=50){
	# Runs a simulation of the Ricker model, returning a vector of 
	# length generations
	
	N <- rep(NA,generations)
	
	N[1] <- N0
	for (t in 2:generations)
	{
		N[t] <- N[t-1] * exp(r*(1.0-(N[t-1]/K)))
	}
	return (N)
}

plot(Ricker(generations=10),type="l")
**********************************************************************

Testing Ricker.R...

Output (only first 500 characters): 

**********************************************************************

**********************************************************************

Code ran without errors

Time consumed = 0.08353s

======================================================================
Inspecting script file MulExpl.R...

File contents are:
**********************************************************************
# Chapter 7: Linear Models, Multiple explanatory variables
# load and check the data

load('mammals.Rdata')
ls()
str(mammals)

# subset down to complete data
mammals <- subset(mammals, select=c(GroundDwelling, TrophicLevel, logCvalue))
mammals <- na.omit(mammals)
str(mammmals)

# 1) boxplots using subset
par(mfrow=c(1,2))
plot(logCvalue ~ TrophicLevel, data= mammals, subset=GroundDwelling=='No', main='Not ground dwelling')
plot(logCvalue ~ TrophicLevel, data= mammals, subset=GroundDwelling=='Yes', main='Ground dwelling')


# 2) boxplots using lattice
library(lattice)
bwplot(logCvalue ~ TrophicLevel | GroundDwelling, data= mammals)
bwplot(logCvalue ~ GroundDwelling | TrophicLevel , data= mammals)


# 3) Barplots and standard errors

# get standard error of the mean from a set of values (x)
seMean <- function(x){
	# get rid of missing values
	x <- na.omit(x)
	# calculate the standard error
	se <- sqrt(var(x)/length(x))
	# tell the function to report the standard error
	return(se)
}

# get a set of grouping variables
groups <- list(mammals$GroundDwelling, mammals$TrophicLevel)

# means and standard errors within groups
groupMeans <- tapply(mammals$logCvalue, groups, FUN=mean)
print(groupMeans)
groupSE <- tapply(mammals$logCvalue, groups, FUN=seMean)
print(groupSE)

# get the upper and lower limits of the error bars
upperSE <- groupMeans + groupSE
lowerSE <- groupMeans - groupSE

# get a barplot - this function can also report where the 
# centres of the bars are on the x-axis
# - set the y axis limits to contain the error bars
barMids <- barplot(groupMeans, ylim=c(0, max(upperSE)),
                   ylab='log C value (pg)', beside=TRUE, col=c('white', 'grey70'))

arrows(barMids, upperSE, barMids, lowerSE, ang=90, code=3, len=0.1)

# 4) creating the means plot figure
par(mfrow=c(1,2), mar=c(3,3,1,1), mgp=c(1.8, 0.7, 0))
plotmeans(logCvalue ~ TrophicLevel, data=mammals, subset=GroundDwelling=='Yes', connect=FALSE, ylim=c(0.8, 1.4))
text(0.6,1.35, 'a)')
plotmeans(logCvalue ~ TrophicLevel, data=mammals, subset=GroundDwelling=='No', connect=FALSE, ylim=c(0.8, 1.4))
text(0.6,1.35, 'b)')

# 5) multiple explanatory variable model
model <- lm(logCvalue ~ TrophicLevel + GroundDwelling, data= mammals)
par(mfrow=c(2,2))
plot(model)

anova(model)
summary(model)

# 6) predict

# data frame of combinations of variables
gd <- rep(levels(mammals$GroundDwelling), times=3)
print(gd)
tl <- rep(levels(mammals$TrophicLevel), each=2)
print(tl)
predVals  <- data.frame(GroundDwelling=gd, TrophicLevel=tl)

# predict using the new data frame
predVals$predict <- predict(model, newdata=predVals)
print(predVals)


# add those points to the barplot
barMids <- barplot(groupMeans, ylim=c(0, 1.4),
                   ylab='log C value (pg)', beside=TRUE, col=c('white', 'grey70'))

arrows(barMids, upperSE, barMids, lowerSE, ang=90, code=3, len=0.1)
points(barMids, predVals$predict, col='red', pch=12)

**********************************************************************

Testing MulExpl.R...

Output (only first 500 characters): 

**********************************************************************

**********************************************************************

Encountered error:
Error in readChar(con, 5L, useBytes = TRUE) : cannot open the connection
Calls: load -> readChar
In addition: Warning message:
In readChar(con, 5L, useBytes = TRUE) :
  cannot open compressed file 'mammals.Rdata', probable reason 'No such file or directory'
Execution halted

======================================================================
Inspecting script file sample.R...

File contents are:
**********************************************************************
# run a simulation that involves sampling from a population

x <- rnorm(50) # generate your population

doit <- function(x){
	x <- sample(x, replace=TRUE)
	if(length(unique(x)) > 30) { #only take mean if sample was sufficient
		print(paste("Mean of this sample was:", as.character(mean(x))))
	}
	else {
		stop("Couldn't calculate mean: too few unique points!") }
}

# Try using "try" with vectorization:
result <- lapply(1:100, function(i) try(doit(x),FALSE))

# Or using a for loop:
result <- vector("list",100) #preallocate/initialise
for (i in 1:100) {
	result[[i]] <- try(doit(x),FALSE)
}
**********************************************************************

Testing sample.R...

Output (only first 500 characters): 

**********************************************************************
[1] "Mean of this sample was: 0.301540508036622"
[1] "Mean of this sample was: 0.0463385361332404"
[1] "Mean of this sample was: 0.101249966982434"
[1] "Mean of this sample was: 0.389256474265789"
[1] "Mean of this sample was: 0.215857130296361"
[1] "Mean of this sample was: 0.30816536826004"
[1] "Mean of this sample was: 0.0139576944459999"
[1] "Mean of this sample was: -0.139343733921534"
[1] "Mean of this sample was: 0.24477400872043"
[1] "Mean of this sample was: 0.286497058384743"
[1] "Mean 
**********************************************************************

Encountered error:
Error in doit(x) : Couldn't calculate mean: too few unique points!
Error in doit(x) : Couldn't calculate mean: too few unique points!
Error in doit(x) : Couldn't calculate mean: too few unique points!
Error in doit(x) : Couldn't calculate mean: too few unique points!
Error in doit(x) : Couldn't calculate mean: too few unique points!
Error in doit(x) : Couldn't calculate mean: too few unique points!
Error in doit(x) : Couldn't calculate mean: too few unique points!
Error in doit(x) : Couldn't calculate mean: too few unique points!
Error in doit(x) : Couldn't calculate mean: too few unique points!
Error in doit(x) : Couldn't calculate mean: too few unique points!
Error in doit(x) : Couldn't calculate mean: too few unique points!
Error in doit(x) : Couldn't calculate mean: too few unique points!
Error in doit(x) : Couldn't calculate mean: too few unique points!
Error in doit(x) : Couldn't calculate mean: too few unique points!
Error in doit(x) : Couldn't calculate mean: too few unique points!
Error in doit(x) : Couldn't calculate mean: too few unique points!
Error in doit(x) : Couldn't calculate mean: too few unique points!
Error in doit(x) : Couldn't calculate mean: too few unique points!
Error in doit(x) : Couldn't calculate mean: too few unique points!
Error in doit(x) : Couldn't calculate mean: too few unique points!
Error in doit(x) : Couldn't calculate mean: too few unique points!
Error in doit(x) : Couldn't calculate mean: too few unique points!
Error in doit(x) : Couldn't calculate mean: too few unique points!
Error in doit(x) : Couldn't calculate mean: too few unique points!
Error in doit(x) : Couldn't calculate mean: too few unique points!
Error in doit(x) : Couldn't calculate mean: too few unique points!
Error in doit(x) : Couldn't calculate mean: too few unique points!
Error in doit(x) : Couldn't calculate mean: too few unique points!
Error in doit(x) : Couldn't calculate mean: too few unique points!
Error in doit(x) : Couldn't calculate mean: too few unique points!
Error in doit(x) : Couldn't calculate mean: too few unique points!
Error in doit(x) : Couldn't calculate mean: too few unique points!
Error in doit(x) : Couldn't calculate mean: too few unique points!
Error in doit(x) : Couldn't calculate mean: too few unique points!
Error in doit(x) : Couldn't calculate mean: too few unique points!
Error in doit(x) : Couldn't calculate mean: too few unique points!
Error in doit(x) : Couldn't calculate mean: too few unique points!
Error in doit(x) : Couldn't calculate mean: too few unique points!
Error in doit(x) : Couldn't calculate mean: too few unique points!
Error in doit(x) : Couldn't calculate mean: too few unique points!
Error in doit(x) : Couldn't calculate mean: too few unique points!
Error in doit(x) : Couldn't calculate mean: too few unique points!
Error in doit(x) : Couldn't calculate mean: too few unique points!
Error in doit(x) : Couldn't calculate mean: too few unique points!
Error in doit(x) : Couldn't calculate mean: too few unique points!
Error in doit(x) : Couldn't calculate mean: too few unique points!
Error in doit(x) : Couldn't calculate mean: too few unique points!
Error in doit(x) : Couldn't calculate mean: too few unique points!
Error in doit(x) : Couldn't calculate mean: too few unique points!
Error in doit(x) : Couldn't calculate mean: too few unique points!
Error in doit(x) : Couldn't calculate mean: too few unique points!
Error in doit(x) : Couldn't calculate mean: too few unique points!
Error in doit(x) : Couldn't calculate mean: too few unique points!
Error in doit(x) : Couldn't calculate mean: too few unique points!
Error in doit(x) : Couldn't calculate mean: too few unique points!
Error in doit(x) : Couldn't calculate mean: too few unique points!

======================================================================
Inspecting script file Ricker.py...

File contents are:
**********************************************************************
#!/usr/bin/python

""" Runs the discrete Ricker model """

__author__ = 'Lauren Enright (l.enright17@imperial.ac.uk)'
__version__ = '0.0.1'
__date__ = '17/10/2017'

import scipy as sc
import pylab as p
import math as m
import sys

def Ricker(N0=1,r=1,K=10,generations=50):
	
	""" Takes the inputs
		N0 initial population number
		r growth rate
		K carrying capacity
		generations number of subsequent generations to carry out
		and returns the timeline [0,...,generations] and a vector N of
		the population number in each generation """
		
	N = sc.zeros(generations+1)
	
	timeline=range(generations+1)
	
	N[0] = N0
	
	for t in range(generations):
		N[t+1]  = N[t]*m.exp(r*(1-N[t]/K))
		
	return timeline, N
	
	
def main(argv):
	
	# default values
	N0=1
	r=1
	K=10
	gens=50
	
	if len(sys.argv)==5:
		N0 = float(sys.argv[2])
		r = float(sys.argv[3])
		K = float(sys.argv[4])
		gens = float(sys.argv[5])
	
	f1 = p.figure() # Open empty figure object

	t, N = Ricker(N0,r,K,gens) # calculate the population

	p.plot(t, N, 'g-') # Plot
	p.title('Ricker population dynamics; r=%f, K=%f' % (r,K))
	p.xlabel('Generation number')
	p.ylabel('Population')
	p.grid()
	p.show()
	
	return 0

if __name__ == "__main__":
	main(sys.argv)
	
	
**********************************************************************

Testing Ricker.py...

Ricker.py is a Python script file;
 checking for docstrings...

Found one or more doctrings!

Output (only first 500 characters): 

**********************************************************************

**********************************************************************

Code ran without errors

Time consumed = 8.40744s

======================================================================
Inspecting script file get_TreeHeight.py...

File contents are:
**********************************************************************
#!/usr/bin/python

""" Takes an input file containing tree names, elevation angle of
	measurement, and distance of measurement from the tree, and outputs
	a file containing the tree heights."""

__author__ = 'Lauren Enright (l.enright17@imperial.ac.uk)'
__version__ = '0.0.1'
__date__ = '16/10/2017'

import sys
import scipy as sc
import re
import math

def tree_height(angle,distance):
	
	""" Takes an angle of elevation in degrees and its adjacent side 
		length of the right angled triangle, and gives the opposite side
		length. """
	
	angle_radians=angle*math.pi/180. # converts angle to radians
	height=distance*math.tan(angle_radians) # computes height

	return height
		
def my_csv_reader(data):
	
	no_entries=data[0].count("\"")/2 # number of entries per csv line
	
	my_output = [0 for lines in data] # preallocate output list length
	
	k=0
	for each_line in data:
		my_row=re.split(r",",each_line)
		for j in range(len(my_row)):
			my_row[j]=re.sub(r"[\n\r\"\']","",my_row[j])
			if re.search(r"[^1234567890.]",my_row[j])==None:
				my_row[j]=float(my_row[j])
		my_output[k]=my_row
		k=k+1
		
	return my_output
	
def my_csv_writer(my_input):
	
	no_rows=len(my_input)
	no_entries=len(my_input[0])
	
	csv_list=[0 for i in range(no_rows)]
	
	for i in range(no_rows):
		csv_list[i]=str(my_input[i][0])
		for k in range(1,no_entries):
			csv_list[i]=csv_list[i]+","+str(my_input[i][k])
		csv_list[i]=csv_list[i]+"\r\n"
		
		print csv_list[i]
		
	return csv_list
		

def main(argv):

	myfilename=sys.argv[1] 
	# extracting the filename argument
	myfilepath="../Data/" + myfilename 
	# constructing the input filepath
	filenamenocsv=myfilename.replace(".csv","") 
	# removing the extension from the filename	
	destinationpath="../Results/" + filenamenocsv + "_treeheightspy.csv"
	#constructing the destination filepath
	
	g = open(myfilepath,'r') # opening the data file
	
	the_csv = g.readlines()
	tree_data = my_csv_reader(the_csv)
	
	#~ print tree_data
	
	new_column = [0 for lines in the_csv]
	
	new_column[0] = "Height.m"
	
	for k in range(1,len(new_column)):
		new_column[k] = tree_height(tree_data[k][2],tree_data[k][1])	
	
	for j in range(len(tree_data)):
		tree_data[j].append(new_column[j])
		
	new_csv=my_csv_writer(tree_data)
	
	print new_csv
	
	f = open(destinationpath,'w')
	
	f.writelines(new_csv)
	f.close()
	
	return 0

if __name__ == "__main__":
	main(sys.argv)


**********************************************************************

Testing get_TreeHeight.py...

get_TreeHeight.py is a Python script file;
 checking for docstrings...

Found one or more doctrings!

Output (only first 500 characters): 

**********************************************************************

**********************************************************************

Encountered error:
Traceback (most recent call last):
  File "get_TreeHeight.py", line 103, in <module>
    main(sys.argv)
  File "get_TreeHeight.py", line 65, in main
    myfilename=sys.argv[1] 
IndexError: list index out of range

======================================================================
Inspecting script file TreeHeight.R...

File contents are:
**********************************************************************
# This uses the function TreeHeight.R to take data from trees.csv
# and output a new file called TreeHts.csv which contains the heights of
# the trees.
#
# The function calculates heights of trees from the angle of elevation
# and the distance from the base using the trigonometric formula
# height = distance * tan(radians)
#
# ARGUMENTS:
# degrees		The angle of elevation
# distance		The distance from base
#
# OUTPUT:
# The height of the tree, same units as "distance"

# read the tree data
TreeData <- read.csv("../Data/trees.csv", header=TRUE)

Species <- TreeData[,1] # extract species names
Distances <- TreeData[,2] # extract distances (in m)
Angles <- TreeData[,3] # extract angles of elevation (in degrees)

TreeHeight <- function(degrees,distance){
	radians <- degrees * pi / 180 # convert to radians
	height <- distance * tan(radians) # compute opposite side length
#~ 	print(paste("Tree height is:", height))
	
	return (height)
}

Heights <- TreeHeight(Angles, Distances) 
# compute the heights for our dataset

NewData <- data.frame(Species,Distances,Angles,Heights)
# put the new heights into a datafram

names(NewData) <- c("Species","Distance.m","Angle.degrees","Height.m")
# set headers

write.csv(NewData, "../Results/TreeHts.csv") # write to file
**********************************************************************

Testing TreeHeight.R...

Output (only first 500 characters): 

**********************************************************************

**********************************************************************

Code ran without errors

Time consumed = 0.06093s

======================================================================
Inspecting script file basic_io.R...

File contents are:
**********************************************************************
# A simple R script to illustrate R input-output.
# Run line by line and check inputs outputs to understand what is
# happening.

MyData <- read.csv("../Data/trees.csv", header=TRUE) #import with headers

# write.csv(MyData, "../Results/MyData.csv") # write it out as a new file

# write.table(MyData[1,], "../Results/MyData.csv", append=TRUE) # append to it

write.csv(MyData, "../Results/MyData.csv", row.names=TRUE) # write row names

# write.csv(MyData, "../Results/MyData.csv", col.names=FALSE) # ignore column names

**********************************************************************

Testing basic_io.R...

Output (only first 500 characters): 

**********************************************************************

**********************************************************************

Code ran without errors

Time consumed = 0.05984s

======================================================================
Inspecting script file temp_N.txt...

File contents are:
**********************************************************************
10000**********************************************************************

Testing temp_N.txt...

======================================================================
Inspecting script file break.R...

File contents are:
**********************************************************************
i <- 0 # Initialise i
	while(i < Inf) {
		if (i==20) {
			break } # break out of the while loop
		else {
			cat("i equals ", i, "\n")
			i <- i + 1 # update i
	}
}

**********************************************************************

Testing break.R...

Output (only first 500 characters): 

**********************************************************************
i equals  0 
i equals  1 
i equals  2 
i equals  3 
i equals  4 
i equals  5 
i equals  6 
i equals  7 
i equals  8 
i equals  9 
i equals  10 
i equals  11 
i equals  12 
i equals  13 
i equals  14 
i equals  15 
i equals  16 
i equals  17 
i equals  18 
i equals  19 

**********************************************************************

Code ran without errors

Time consumed = 0.05572s

======================================================================
Inspecting script file Vectorize1.py...

File contents are:
**********************************************************************
#!/usr/bin/python

""" Sums elements to demonstrate speed of vectorising """

__author__ = 'Lauren Enright (l.enright17@imperial.ac.uk)'
__version__ = '0.0.1'
__date__ = '17/10/2017' 

import scipy as sc 
import numpy as np
import pylab as p #Contains matplotlib for plotting

import sys

def SumAllElements(M):
	
	""" Manually sums the elements of a matrix M """
	
	Tot = 0
	
	for i in range(M.shape[0]):
		for j in range(M.shape[1]):
			Tot = Tot + M[i,j]

	return Tot


def main(argv):
	
	""" Main function for Vectorize1.py """
	
	M = np.random.uniform(0,1,(100,100))
	
	SumAllElements(M)
	
	return 0
	
if __name__ == "__main__":
	main(sys.argv)
**********************************************************************

Testing Vectorize1.py...

Vectorize1.py is a Python script file;
 checking for docstrings...

Found one or more doctrings!

Output (only first 500 characters): 

**********************************************************************

**********************************************************************

Code ran without errors

Time consumed = 0.14366s

======================================================================
Inspecting script file PP_Lattice.R...

File contents are:
**********************************************************************
# This script uses the data:
##	EcolArchives-E089-51-D1.csv
# and produces four files:
##	Pred_Lattice.pdf
##	Prey_Lattice.pdf
##	SizeRatio_Lattice.pdf
##	PP_Results.csv

# empty the workspace
rm(list=ls())

# close any open PDFs
if (length(dev.list()) >0){
	dev.off()
}

# open the lattice structure
library(lattice)

# read the data
MyDF <- read.csv("../Data/EcolArchives-E089-51-D1.csv")

#### Predator lattice ####

# open blank PDF page
pdf("../Results/Pred_Lattice.pdf",10,10)

# do the lattice plot
p <- densityplot(~log(Predator.mass)|Type.of.feeding.interaction,
	data=MyDF, main = "Predator mass by feeding type",
	xlab="log Predator Mass (kg)",ylab="Frequency")

# print the plot and close the PDF
print(p)
dev.off()


#### Prey lattice ####

# open blank PDF page
pdf("../Results/Prey_Lattice.pdf",10,10)

# do the lattice plot
p <- densityplot(~log(Prey.mass)|Type.of.feeding.interaction,
	data=MyDF, main = "Prey mass by feeding type",
	xlab="log Prey Mass (kg)",ylab="Frequency")

# print the plot and close the PDF
print(p)
dev.off()

#### Body size ratio lattice ####

# open blank PDF page
pdf("../Results/SizeRatio_Lattice.pdf",10,10)

# do the lattice plot
p <- densityplot(~log(Predator.mass/Prey.mass)|Type.of.feeding.interaction,
	data=MyDF, main = "Predator-prey mass ratio by feeding type",
	xlab="log Predator-prey size ratio",ylab="Frequency")

# print the plot and close the PDF
print(p)
dev.off()

#### Calculating mean and median log sizes and ratios ####

# extracting a vector of feeding types
feeding_types <- as.vector(unique(MyDF$Type.of.feeding.interaction))

# preallocating a matrix for the average values
output_mat=matrix(rep(NA,7*length(feeding_types)),length(feeding_types),7)

for (i in 1:length(feeding_types))
# cycle through the feeding types
{ 
	# what is the type?
	type <- feeding_types[i]

	# extract data with this feeding type
	type_data <- subset(MyDF, Type.of.feeding.interaction==type)

	# averages for predators
	log_pred_mass <- log(type_data$Predator.mass)
	pred_mean <- mean(log_pred_mass)
	pred_med <- median(log_pred_mass)

	# averages for prey
	log_prey_mass <- log(type_data$Prey.mass)
	prey_mean <- mean(log_prey_mass)
	prey_med <- median(log_prey_mass)

	# averages for ratios
	log_ratios <- log(type_data$Predator.mass / type_data$Prey.mass)
	ratio_mean <- mean(log_ratios)
	ratio_med <- median(log_ratios)

	# entry in the matrix
	output_mat[i,] <- c(type,pred_mean,pred_med,prey_mean,prey_med,ratio_mean,ratio_med)
}

# create a dataframe
output_DF <- data.frame(output_mat)
colnames(output_DF) <- c("Type.of.feeding.interaction","Pred.mean.log.mass","Pred.median.log.mass","Prey.mean.log.mass","Prey.median.log.mass","Mean.log.mass.ratio","Median.log.mass.ratio")

# output to csv
write.csv(output_DF, "../Results/PP_Results.csv", row.names=FALSE) # write to file
**********************************************************************

Testing PP_Lattice.R...

Output (only first 500 characters): 

**********************************************************************
null device 
          1 
null device 
          1 
null device 
          1 

**********************************************************************

Code ran without errors

Time consumed = 1.32290s

======================================================================
Inspecting script file browse.R...

File contents are:
**********************************************************************
Exponential <- function(N0=1, r=1, generations=10){
	# Runs a simulation of exponential growth and returns a vector of
	# length generations.
	
	N <- rep(NA, generations) # creates a vector of NA
	
	N[1] <- N0
	for (t in 2:generations){
		N[t] <- N[t-1] * exp(r)
#~ 		browser()
	}
	return (N)
}
plot(Exponential(), type="l", main="Exponential growth")
**********************************************************************

Testing browse.R...

Output (only first 500 characters): 

**********************************************************************

**********************************************************************

Code ran without errors

Time consumed = 0.08243s

======================================================================
Inspecting script file Vectorize2.py...

File contents are:
**********************************************************************
#!/usr/bin/python

""" Carries out the discrete Ricker model """

__author__ = 'Lauren Enright (l.enright17@imperial.ac.uk)'
__version__ = '0.0.1'
__date__ = '17/10/2017' 

import scipy as sc 
import numpy as np
import math as m
import pylab as p #Contains matplotlib for plotting

import sys

def stochrick(p0=np.random.uniform(.5,1.5,1000),r=1.2,K=1,sigma=0.2,numyears=100):
	
	""" Computes the discrete stochastic Ricker model populations with 
	the inputs
	p0 initial population (for any number of populations)
	r growth rate
	K carrying capacity
	sigma standard deviation for the Gaussian fluctuation in growth
	numyears number of subsequent years to carry out
	and outputs the timeseries and the resulting population matrix."""
	
	number_populations = len(p0)
	timeseries = range(0,numyears+1)
	
	# initialise
	N = sc.zeros((numyears+1,number_populations))
	N[0,:] = p0
	
	for pop in range(number_populations):
		for yr in range(numyears):
			N[yr+1,pop] = N[yr,pop]*m.exp(r*(1-N[yr,pop]/K)+np.random.normal(0,sigma))
	
	return timeseries, N
	
	
def main(argv):
	
	""" Main function for Vectorize2.py """
	
	stochrick()
	
	return 0
	
if __name__ == "__main__":
	main(sys.argv)
**********************************************************************

Testing Vectorize2.py...

Vectorize2.py is a Python script file;
 checking for docstrings...

Found one or more doctrings!

Output (only first 500 characters): 

**********************************************************************

**********************************************************************

Code ran without errors

Time consumed = 0.23307s

======================================================================
Inspecting script file DataWrang.R...

File contents are:
**********************************************************************
################################################################
################## Wrangling the Pound Hill Dataset ############
################################################################

############# Load the dataset ###############
# header = false because the raw data don't have real headers
MyData <- as.matrix(read.csv("../Data/PoundHillData.csv",header = F)) 

# header = true because we do have metadata headers
MyMetaData <- read.csv("../Data/PoundHillMetaData.csv",header = T, sep=";", stringsAsFactors = F)

############# Inspect the dataset ###############
head(MyData)
dim(MyData)
str(MyData)

############# Transpose ###############
MyData <- t(MyData)
head(MyData)
dim(MyData)

############# Replace species absences with zeros ###############
MyData[MyData == ""] = 0

############# Convert raw matrix to data frame ###############

TempData <- as.data.frame(MyData[-1,],stringsAsFactors = F) #stringsAsFactors = F is important!
colnames(TempData) <- MyData[1,] # assign column names from original data

############# Convert from wide to long format  ###############
require(reshape2) # load the reshape2 package

?melt #check out the melt function
MyWrangledData <- melt(TempData, id=c("Cultivation", "Block", "Plot", "Quadrat"), 
variable.name = "Species", value.name = "Count")
MyWrangledData[, "Cultivation"] <- as.factor(MyWrangledData[, "Cultivation"])
MyWrangledData[, "Block"] <- as.factor(MyWrangledData[, "Block"])
MyWrangledData[, "Plot"] <- as.factor(MyWrangledData[, "Plot"])
MyWrangledData[, "Quadrat"] <- as.factor(MyWrangledData[, "Quadrat"])
MyWrangledData[, "Count"] <- as.numeric(MyWrangledData[, "Count"])

str(MyWrangledData)
head(MyWrangledData)
dim(MyWrangledData)

############# Start exploring the data (extend the script below)!  ###############

# number of tree species
no_species <- length(unique(MyWrangledData$Species))
cat("\nThe number of tree species is ",no_species,".\n",sep="")
**********************************************************************

Testing DataWrang.R...

Output (only first 500 characters): 

**********************************************************************
     V1                     V2        V3        V4        V5        V6       
[1,] "Cultivation"          "october" "october" "october" "october" "october"
[2,] "Block"                "a"       "a"       "a"       "a"       "a"      
[3,] "Plot"                 "1"       "1"       "1"       "1"       "1"      
[4,] "Quadrat"              "Q1"      "Q2"      "Q3"      "Q4"      "Q5"     
[5,] "Achillea millefolium" "4"       "8"       "3"       "20"      "6"      
[6,] "Agrostis gigantea"    ""   
**********************************************************************

Encountered error:
Loading required package: reshape2

======================================================================
Inspecting script file Vectorize2.R...

File contents are:
**********************************************************************
# Runs the stochastic (with gaussian fluctuations) Ricker Eqn .

rm(list=ls())

stochrick<-function(p0=runif(1000,.5,1.5),r=1.2,K=1,sigma=0.2,numyears=100)
{
  #initialize
  N<-matrix(NA,numyears,length(p0))
  N[1,]<-p0
  
  for (pop in 1:length(p0)) #loop through the populations
  {
    for (yr in 2:numyears) #for each pop, loop through the years
    {
      N[yr,pop]<-N[yr-1,pop]*exp(r*(1-N[yr-1,pop]/K)+rnorm(1,0,sigma))
    }
  }
  return(N)
}

plot(stochrick()[,2],type='l')

# Now write another code called stochrickvect that vectorizes the above 
# to the extent possible, with improved performance: 

#~ print("Matrix Stochastic Ricker takes:")
#~ print(system.time(res2<-stochrick()))

**********************************************************************

Testing Vectorize2.R...

Output (only first 500 characters): 

**********************************************************************

**********************************************************************

Code ran without errors

Time consumed = 0.41396s

======================================================================
Inspecting script file boilerplate.R...

File contents are:
**********************************************************************
MyFunction <- function(Arg1,Arg2){

	# Statements involving Arg1, Arg2:
	print(paste("Argument", as.character(Arg1), "is a", class(Arg1)))
		#print Arg1's type
	print(paste("Argument", as.character(Arg2), "is a", class(Arg2)))
		#print Arg2's type
	
	return (c(Arg1, Arg2)) # this is optional, but very useful
}

MyFunction(1,2) #test the function
MyFunction("Riki","Tiki") #a different test
**********************************************************************

Testing boilerplate.R...

Output (only first 500 characters): 

**********************************************************************
[1] "Argument 1 is a numeric"
[1] "Argument 2 is a numeric"
[1] 1 2
[1] "Argument Riki is a character"
[1] "Argument Tiki is a character"
[1] "Riki" "Tiki"

**********************************************************************

Code ran without errors

Time consumed = 0.05498s

======================================================================
Inspecting script file next.R...

File contents are:
**********************************************************************
for (i in 1:10) {
	if ((i %% 2) == 0)
		next # pass to next iteration of loop
	print(i)
}
**********************************************************************

Testing next.R...

Output (only first 500 characters): 

**********************************************************************
[1] 1
[1] 3
[1] 5
[1] 7
[1] 9

**********************************************************************

Code ran without errors

Time consumed = 0.05281s

======================================================================
======================================================================
Finished running scripts

Ran into 14 errors

======================================================================
======================================================================

FINISHED WEEKLY ASSESSMENT

Current Marks for the Week = 95.0

NOTE THAT THESE ARE NOT THE FINAL MARKS FOR THE WEEK, BUT AN UPPER BOUND ON THE MARKS!