"Type.of.feeding.interaction","Predator.lifestage","Number.of.samples","Regression.slope","Regression.intercept","R.squared","F.statistic.value","p.value"
"predacious/piscivorous","adult","161","0.0252966089904334","5.51027445119809","0.238053561873821","49.6760854096537","5.69245260655543e-96"
"piscivorous","adult","17700","0.00236009108045278","7.48517433306998","0.0211155940731052","381.764978217178","0"
"piscivorous","juvenile","3029","0.00336121713942573","8.5468483431952","0.000413699793105793","1.25278755168217","0"
"planktivorous","juvenile","2","2419.74025952797","0.827902544277279","1","NaN","NaN"
"predacious","juvenile","2102","0.128781205513276","1.36890680118037","0.0691507039351728","156.00428434309","5.0216696237287e-44"
"predacious","adult","7931","0.00245788294280944","7.66706256768173","0.0236929463907902","192.420377624119","0"
"predacious","larva","1212","23781.4818190371","-3.07250416385838","0.125811604890146","174.141000691215","0"
"predacious","larva / juvenile","487","41.3648021594808","-2.34918370606895","0.108859170511703","59.2461886506676","7.73049734051873e-85"
"planktivorous","adult","158","0.0410445852588687","9.00200061086751","0.028006414197086","4.49488626114381","4.03100600879265e-78"
"planktivorous","larva","1025","1.25101966373518","-4.80519393114943","0.00185211230647318","1.89822661840248","0"
"planktivorous","larva / juvenile","120","95927.9203429965","-2.97799351940692","0.184140124696191","26.6326796694828","2.21787784837454e-43"
"piscivorous","larva / juvenile","11","17.0315317601281","0.85671979596943","0.194292047773311","2.17030057246825","0.230275482413557"
"insectivorous","larva / juvenile","32","8.46962991424271","-1.14009362850024","0.459595590560232","25.5139807817273","0.000671687453775907"
"predacious","postlarva/juvenile","590","1.6584918452651","-1.05668246475589","0.0153796383316735","9.18448134030185","2.61797452630591e-89"
"planktivorous","postlarva/juvenile","264","74657.1326171197","-2.68350958064403","0.0746103326106537","21.123973859724","1.22066945981143e-100"
"piscivorous","postlarva/juvenile","2",NA,"0.242446120869743","0",NA,"0.235526940087417"
"predacious","postlarva","72","-0.0892573668514553","-2.26575664767835","0.0132161326132727","0.937519667178063","5.89501045943899e-35"
"piscivorous","postlarva","33","6.42249790069604","-3.27961848349786","0.355983347257412","17.1354012632816","4.15264641285609e-21"
